{
    "shortid": "erkLzi",
    "name": "Orders",
    "inheritedReadPermissions": [],
    "inheritedEditPermissions": [],
    "creationDate": {
        "$$date": 1594138867953
    },
    "modificationDate": {
        "$$date": 1594138867953
    },
    "_id": "JLDNwEmvuUyAO4Zj",
    "$entitySet": "folders"
}